<?xml version="1.0" encoding="utf-8"?>
<!-- Generator: Adobe Illustrator 21.1.0, SVG Export Plug-In . SVG Version: 6.00 Build 0)  -->
<svg version="1.1" id="Layer_1" xmlns="http://www.w3.org/2000/svg" xmlns:xlink="http://www.w3.org/1999/xlink" x="0px" y="0px"
	 viewBox="0 0 10.2 10.2" style="enable-background:new 0 0 10.2 10.2;" xml:space="preserve">
<style type="text/css">
	.st0{fill:#B2BDC3;}
</style>
<title>Artboard 1</title>
<g id="Layer_1_1_">
	<g>
		<path class="st0" d="M10.1,1.6C10,1.5,9.8,1.4,9.7,1.4H2.3L2.2,0.8c0-0.3-0.3-0.4-0.5-0.4H0.5C0.2,0.3,0,0.6,0,0.9
			s0.2,0.5,0.5,0.5h0.7l1,5.9c0,0,0,0,0,0.1c0,0,0,0.1,0,0.1c0,0,0,0.1,0.1,0.1c0,0,0,0,0.1,0.1c0,0,0.1,0,0.1,0.1c0,0,0,0,0.1,0
			c0.1,0,0.1,0,0.2,0c0,0,5.8,0,5.8,0c0.3,0,0.5-0.2,0.5-0.5S8.9,6.7,8.6,6.7H3.2L3.1,6.2h6c0.3,0,0.5-0.2,0.5-0.5L10.2,2
			C10.2,1.8,10.2,1.7,10.1,1.6z M9.1,2.5L8.9,3.5H7V2.5H9.1z M6.5,2.5v1.1H4.9V2.5H6.5z M6.5,4v1.1H4.9V4H6.5z M4.4,2.5v1.1H2.8
			c0,0-0.1,0-0.1,0L2.5,2.5H4.4z M2.8,4h1.6v1.1H3L2.8,4z M7,5.1V4h1.8L8.7,5.1H7z"/>
		<circle class="st0" cx="3.6" cy="9.1" r="0.8"/>
		<circle class="st0" cx="8.3" cy="9.1" r="0.8"/>
	</g>
</g>
</svg>
