<?xml version="1.0" encoding="utf-8"?>
<!-- Generator: Adobe Illustrator 21.1.0, SVG Export Plug-In . SVG Version: 6.00 Build 0)  -->
<svg version="1.1" id="Layer_1" xmlns="http://www.w3.org/2000/svg" xmlns:xlink="http://www.w3.org/1999/xlink" x="0px" y="0px"
	 viewBox="0 0 10.2 10.2" style="enable-background:new 0 0 10.2 10.2;" xml:space="preserve">
<style type="text/css">
	.st0{fill:#B2BDC3;}
</style>
<title>Artboard 1</title>
<path class="st0" d="M4.9,8.9c-1,0-2-0.5-2.6-1.3c0.4,0.5,1,0.8,1.7,0.8c1.2,0,2.1-0.9,2.2-2.1c0-0.4-0.1-0.7-0.3-1L5.6,5
	c0.1,0.1,0.2,0.2,0.3,0.3L7.6,7l2.3-6.1H3.4l-1,2.6C3,2.8,3.9,2.4,4.9,2.4c1,0,2,0.4,2.7,1.3C7.1,3.2,6.5,2.9,5.8,2.9
	C4.6,2.9,3.7,3.8,3.6,5c0,0.5,0.2,1,0.5,1.3l-2-2l-1.8,5h6.5l0.6-1.5C6.7,8.5,5.9,8.9,4.9,8.9z"/>
</svg>
