<?xml version="1.0" encoding="utf-8"?>
<!-- Generator: Adobe Illustrator 21.1.0, SVG Export Plug-In . SVG Version: 6.00 Build 0)  -->
<svg version="1.1" id="Layer_1" xmlns="http://www.w3.org/2000/svg" xmlns:xlink="http://www.w3.org/1999/xlink" x="0px" y="0px"
	 viewBox="0 0 208 53.4" style="enable-background:new 0 0 208 53.4;" xml:space="preserve">
<style type="text/css">
	.st0{fill:#CECECE;}
	.st1{fill:#FFFFFF;}
	.st2{fill:#9D7BF2;}
</style>
<g>
	<g>
		<g>
			<path class="st0" d="M6.8,4.9C7.1,4.8,7.5,4.8,8,4.8c0.6,0,1.1,0.1,1.4,0.4c0.3,0.2,0.4,0.6,0.4,1S9.7,7,9.4,7.3
				C9.1,7.7,8.6,7.8,7.9,7.8c-0.2,0-0.4,0-0.5,0v2H6.8V4.9z M7.4,7.3c0.1,0,0.3,0.1,0.5,0.1c0.8,0,1.2-0.4,1.2-1.1s-0.5-1-1.2-1
				c-0.3,0-0.5,0-0.6,0.1L7.4,7.3L7.4,7.3z"/>
			<path class="st0" d="M15.1,4.8h0.6v4.4h2.1v0.5H15L15.1,4.8L15.1,4.8z"/>
			<path class="st0" d="M23.8,8.2l-0.5,1.6h-0.7l1.7-5h0.8l1.7,5h-0.7l-0.5-1.6H23.8z M25.4,7.7l-0.5-1.4c-0.1-0.3-0.2-0.6-0.3-0.9
				l0,0c-0.1,0.3-0.2,0.6-0.3,0.9l-0.5,1.4H25.4z"/>
			<path class="st0" d="M31.9,9.8v-5h0.7l1.6,2.5c0.4,0.6,0.7,1.1,0.9,1.6l0,0C35,8.3,35,7.7,35,6.9V4.8h0.6v5H35l-1.6-2.5
				c-0.3-0.6-0.7-1.1-0.9-1.7l0,0c0,0.6,0.1,1.2,0.1,2v2.1L31.9,9.8L31.9,9.8z"/>
			<path class="st0" d="M43.7,7.5h-1.9v1.8h2.1v0.5h-2.8v-5h2.7v0.5h-2v1.6h1.9V7.5z"/>
			<path class="st0" d="M50.3,4.8H51v3.3c0,1.3-0.6,1.7-1.5,1.7c-0.2,0-0.5-0.1-0.7-0.1l0.1-0.5c0.1,0.1,0.3,0.1,0.5,0.1
				c0.6,0,0.9-0.3,0.9-1.2V4.8z"/>
			<path class="st0" d="M57.2,8.2l-0.5,1.6H56l1.7-5h0.8l1.7,5h-0.7L59,8.2H57.2z M58.9,7.7l-0.5-1.4c-0.1-0.3-0.2-0.6-0.3-0.9l0,0
				C58,5.7,57.9,6,57.8,6.3l-0.5,1.4C57.3,7.7,58.9,7.7,58.9,7.7z"/>
			<path class="st0" d="M69.5,7.6c0-0.7-0.1-1.5-0.1-2.1l0,0c-0.2,0.6-0.4,1.2-0.6,1.9l-0.9,2.4h-0.5l-0.8-2.4
				c-0.2-0.7-0.4-1.3-0.6-1.9l0,0c0,0.6-0.1,1.4-0.1,2.2l-0.1,2.1h-0.6l0.3-5h0.8l0.8,2.4c0.2,0.6,0.4,1.2,0.5,1.7l0,0
				c0.1-0.5,0.3-1,0.5-1.7L69,4.8h0.8l0.3,5h-0.6L69.5,7.6z"/>
			<path class="st0" d="M78.2,7.5h-1.9v1.8h2.1v0.5h-2.8v-5h2.7v0.5h-2v1.6h1.9C78.2,6.9,78.2,7.5,78.2,7.5z"/>
			<path class="st0" d="M83.7,9.8v-5h0.7L86,7.3c0.4,0.6,0.7,1.1,0.9,1.6l0,0c-0.1-0.7-0.1-1.3-0.1-2V4.8h0.6v5h-0.6l-1.6-2.5
				c-0.3-0.6-0.7-1.1-0.9-1.7l0,0c0,0.6,0.1,1.2,0.1,2v2.1L83.7,9.8L83.7,9.8z"/>
			<path class="st0" d="M93.8,5.4h-1.5V4.8H96v0.5h-1.5v4.4h-0.6L93.8,5.4L93.8,5.4z"/>
			<path class="st0" d="M105,7.3c0,1.7-1,2.6-2.3,2.6s-2.2-1-2.2-2.5c0-1.6,1-2.6,2.3-2.6C104.1,4.7,105,5.8,105,7.3z M101.2,7.3
				c0,1.1,0.6,2,1.6,2s1.6-0.9,1.6-2.1c0-1-0.5-2-1.6-2C101.7,5.3,101.2,6.2,101.2,7.3z"/>
			<path class="st0" d="M118.8,7.5h-1.9v1.8h2.1v0.5h-2.8v-5h2.7v0.5h-2v1.6h1.9C118.8,6.9,118.8,7.5,118.8,7.5z"/>
			<path class="st0" d="M124.1,9c0.3,0.2,0.7,0.3,1.1,0.3c0.7,0,1-0.3,1-0.8s-0.3-0.7-0.9-1c-0.8-0.3-1.3-0.7-1.3-1.4
				c0-0.8,0.6-1.3,1.6-1.3c0.5,0,0.9,0.1,1.1,0.2l-0.2,0.5c-0.2-0.1-0.5-0.2-0.9-0.2c-0.7,0-0.9,0.4-0.9,0.7c0,0.5,0.3,0.7,1,1
				c0.8,0.3,1.3,0.7,1.3,1.5s-0.6,1.4-1.7,1.4c-0.5,0-1-0.1-1.3-0.3L124.1,9z"/>
			<path class="st0" d="M133.2,5.4h-1.5V4.8h3.7v0.5h-1.5v4.4h-0.6L133.2,5.4L133.2,5.4z"/>
			<path class="st0" d="M140.3,4.9c0.3-0.1,0.8-0.1,1.2-0.1c0.7,0,1.1,0.1,1.4,0.4c0.3,0.2,0.4,0.6,0.4,0.9c0,0.7-0.4,1.1-0.9,1.3
				l0,0c0.4,0.1,0.6,0.5,0.7,1c0.2,0.7,0.3,1.2,0.4,1.4h-0.7c-0.1-0.1-0.2-0.6-0.3-1.2c-0.1-0.7-0.4-0.9-1-1H141v2.1h-0.6L140.3,4.9
				L140.3,4.9z M141,7.2h0.7c0.7,0,1.1-0.4,1.1-0.9c0-0.6-0.5-0.9-1.1-0.9c-0.3,0-0.5,0-0.6,0.1L141,7.2L141,7.2z"/>
			<path class="st0" d="M149.5,8.2L149,9.8h-0.7l1.7-5h0.8l1.7,5h-0.7l-0.5-1.6H149.5z M151.2,7.7l-0.5-1.4
				c-0.1-0.3-0.2-0.6-0.3-0.9l0,0c-0.1,0.3-0.2,0.6-0.3,0.9l-0.5,1.4H151.2z"/>
			<path class="st0" d="M158,5.4h-1.5V4.8h3.7v0.5h-1.5v4.4H158V5.4z"/>
			<path class="st0" d="M167.7,7.5h-1.9v1.8h2.1v0.5h-2.8v-5h2.7v0.5h-2v1.6h1.9V7.5z M167.6,3.7l-0.9,0.9h-0.5l0.7-0.9
				C166.9,3.7,167.6,3.7,167.6,3.7z"/>
			<path class="st0" d="M176.9,9.6c-0.3,0.1-0.9,0.3-1.5,0.3c-0.8,0-1.4-0.2-1.9-0.7c-0.4-0.4-0.7-1.1-0.7-1.8c0-1.5,1-2.6,2.7-2.6
				c0.6,0,1,0.1,1.2,0.2l-0.2,0.5c-0.3-0.1-0.6-0.2-1.1-0.2c-1.2,0-2,0.8-2,2c0,1.3,0.8,2,1.9,2c0.4,0,0.7-0.1,0.9-0.1V7.7h-1V7.2
				h1.6v2.4H176.9z"/>
			<path class="st0" d="M183,4.8v5h-0.6v-5H183z"/>
			<path class="st0" d="M192,9.6c-0.2,0.1-0.7,0.2-1.3,0.2c-1.4,0-2.4-0.9-2.4-2.5s1.1-2.6,2.6-2.6c0.6,0,1,0.1,1.2,0.2l-0.2,0.5
				c-0.2-0.1-0.6-0.2-1-0.2c-1.2,0-1.9,0.7-1.9,2c0,1.2,0.7,2,1.9,2c0.4,0,0.8-0.1,1-0.2L192,9.6z"/>
			<path class="st0" d="M201.2,7.3c0,1.7-1,2.6-2.3,2.6s-2.2-1-2.2-2.5c0-1.6,1-2.6,2.3-2.6C200.4,4.7,201.2,5.8,201.2,7.3z
				 M197.4,7.3c0,1.1,0.6,2,1.6,2s1.6-0.9,1.6-2.1c0-1-0.5-2-1.6-2C197.9,5.3,197.4,6.2,197.4,7.3z"/>
		</g>
	</g>
	<g>
		<g>
			<path class="st1" d="M33.6,27.3c0,0.1,0,0.1,0,0.2v11.6c0,1.3-1.1,2.4-2.4,2.4c-1.3,0-2.3-1.1-2.3-2.4V27.5c0-0.1,0-0.1,0-0.2
				c0,0,0-0.1,0-0.2c0-2.7-2.2-4.8-4.9-4.8s-4.9,2.2-4.9,4.8v12c0,1.3-1.1,2.4-2.3,2.4c-1.3,0-2.4-1.1-2.4-2.4v-12
				c0-2.7-2.2-4.8-4.8-4.8c-2.7,0-4.9,2.2-4.9,4.8v12c0,1.3-1.1,2.4-2.3,2.4c-1.3,0-2.4-1.1-2.4-2.4v-12c0-5.3,4.3-9.6,9.6-9.6
				c2.9,0,5.5,1.2,7.2,3.3c1.8-2.1,4.4-3.3,7.2-3.3c5.3,0,9.6,4.3,9.6,9.6C33.7,27.2,33.7,27.2,33.6,27.3z"/>
			<path class="st1" d="M60.5,29.4c0,1.3-1.1,2.3-2.4,2.3H41.6c1,2.9,3.7,4.9,6.9,4.9c1.1,0,3.1-0.1,5.4-1.6c1.1-0.7,2.6,0,3.2,1.1
				c0.6,1.2,0,2.4-1.1,3.2c-3.2,2.1-5.6,2.1-7.4,2.1c-6.6,0-12-5.4-12-12s5.4-12,12-12C54.3,17.4,60.5,21.6,60.5,29.4z M41.6,27
				h13.8c-1-3.3-4.1-4.9-6.9-4.9C45.3,22.1,42.6,24.2,41.6,27z"/>
			<path class="st1" d="M82.7,19.8v12l0,0c0,5.3-4.4,9.6-9.7,9.6c-5.3,0-9.6-4.3-9.7-9.6l0,0v-12c0-1.3,1.1-2.3,2.3-2.3
				c1.3,0,2.4,1.1,2.4,2.3v12c0,2.7,2.2,5,4.9,5c2.8,0,5-2.2,5-5v-12c0-1.3,1.1-2.3,2.4-2.3C81.7,17.5,82.7,18.5,82.7,19.8z"/>
			<path class="st1" d="M100,34.2c0,4-3.2,7.2-7.2,7.2c-3.4,0-6.1-2.4-7-5.2c-0.4-1.2,0.6-2.5,1.8-2.8c1.3-0.2,2.2,0.7,2.8,1.9
				c0.7,1.2,1.2,1.4,2.4,1.4c1.3,0,2.4-1.1,2.4-2.5c0-1.3-1.1-2.4-2.4-2.4c-1.9,0-3.7-0.8-5.1-2.1c-1.4-1.3-2.1-3.2-2.1-5.1
				c0-4,3.2-7.2,7.2-7.2c3.3,0,6.4,2.3,6.9,5c0.2,1.3-0.5,2.6-1.8,2.8c-1.3,0.3-2.4-0.6-2.8-1.8c-0.3-0.8-1.1-1.3-2.2-1.3
				c-1.3,0-2.4,1.1-2.4,2.4s1.1,2.4,2.4,2.4c1.9,0,3.7,0.8,5.1,2.1C99.3,30.6,100,32.3,100,34.2z"/>
			<path class="st1" d="M126.3,29.4c0,1.3-1.1,2.3-2.4,2.3h-16.5c1,2.9,3.7,4.9,6.9,4.9c1.1,0,3.1-0.1,5.4-1.6
				c1.1-0.7,2.6,0,3.2,1.1c0.6,1.2,0,2.4-1.1,3.2c-3.2,2.1-5.6,2.1-7.4,2.1c-6.6,0-12-5.4-12-12s5.4-12,12-12
				C120.1,17.4,126.3,21.6,126.3,29.4z M107.4,27h13.8c-1-3.3-4.1-4.9-6.9-4.9C111.1,22.1,108.4,24.2,107.4,27z"/>
			<path class="st1" d="M143.5,19.8c0,1.3-1.1,2.4-2.4,2.4c-4,0-7.3,3.3-7.3,7.3v9.6c0,1.3-1.1,2.4-2.3,2.4c-1.3,0-2.4-1.1-2.4-2.4
				v-9.6c0-6.6,5.4-12,12-12C142.5,17.5,143.5,18.5,143.5,19.8z"/>
			<path class="st1" d="M147.8,39.2v11.9c0,1.3-1.1,2.3-2.3,2.3c-1.3,0-2.4-1.1-2.4-2.3V29.6l0,0c0-6.6,5.4-12,12-12s12,5.4,12,12
				s-5.4,12-12,12C152.3,41.6,149.8,40.7,147.8,39.2z M147.8,29.6L147.8,29.6c0,4,3.3,7.3,7.3,7.3s7.3-3.3,7.3-7.3s-3.3-7.3-7.3-7.3
				S147.8,25.6,147.8,29.6z"/>
			<path class="st1" d="M184.2,19.8c0,1.3-1.1,2.4-2.4,2.4c-4,0-7.3,3.3-7.3,7.3v9.6c0,1.3-1.1,2.4-2.3,2.4c-1.3,0-2.4-1.1-2.4-2.4
				v-9.6c0-6.6,5.4-12,12-12C183.1,17.5,184.2,18.5,184.2,19.8z"/>
			<path class="st1" d="M184,29.4c0-6.6,5.4-12,12-12s12,5.4,12,12s-5.4,12-12,12S184,36,184,29.4z M188.8,29.4c0,4,3.3,7.3,7.3,7.3
				s7.3-3.3,7.3-7.3s-3.3-7.3-7.3-7.3S188.8,25.4,188.8,29.4z"/>
		</g>
	</g>
	<circle class="st2" cx="196" cy="29.4" r="3.7"/>
</g>
</svg>
