<?xml version="1.0" encoding="utf-8"?>
<!-- Generator: Adobe Illustrator 21.1.0, SVG Export Plug-In . SVG Version: 6.00 Build 0)  -->
<svg version="1.1" id="Layer_1" xmlns="http://www.w3.org/2000/svg" xmlns:xlink="http://www.w3.org/1999/xlink" x="0px" y="0px"
	 viewBox="0 0 29 32.8" style="enable-background:new 0 0 29 32.8;" xml:space="preserve">
<style type="text/css">
	.st0{opacity:0.34;fill:#0F0F0F;enable-background:new    ;}
	.st1{fill:url(#SVGID_1_);}
	.st2{fill:url(#SVGID_2_);}
	.st3{fill:url(#SVGID_3_);}
	.st4{fill:url(#SVGID_4_);}
	.st5{fill:url(#SVGID_5_);}
	.st6{fill:#CA8B0B;}
	.st7{fill:url(#SVGID_6_);}
	.st8{fill:#AD6915;}
	.st9{fill:#AA7114;}
	.st10{fill:#FFE88D;}
	.st11{opacity:0.75;fill:#FFFFFF;enable-background:new    ;}
	.st12{opacity:0.5;fill:#FFFFFF;enable-background:new    ;}
	.st13{opacity:0.34;fill:url(#SVGID_7_);enable-background:new    ;}
	.st14{opacity:0.22;fill:#FFF1D9;enable-background:new    ;}
</style>
<path class="st0" d="M29,16c-0.2-2.9-1.2-5.5-2.6-7.6C26.3,8.2,26.2,8,26,7.8c-0.1-0.1-0.2-0.2-0.3-0.4c-1.3-1.7-3-3.1-4.8-3.9
	c-0.1-0.1-0.2-0.1-0.3-0.1c-0.1,0-0.3-0.1-0.4-0.1c-1.4-0.5-2.9-0.8-4.5-0.7h-1.6c-2.8,0.1-5.5,1.2-7.5,3.2c0,0,0,0,0,0
	c-2.9,2.7-4.8,7-4.8,11.8c0,6.9,3.4,12.2,9,14.5c1.7,0.7,4.2,1,8.1,0.3C24.7,31.1,29,25,29,17.6C29,17.1,29,16.5,29,16z"/>
<title>Artboard 1</title>
<g>
	<g id="Layer_1_1_">
		
			<linearGradient id="SVGID_1_" gradientUnits="userSpaceOnUse" x1="-43.2869" y1="-139.3289" x2="-12.3369" y2="-139.3289" gradientTransform="matrix(-1 0 0 -1 -10 -124.35)">
			<stop  offset="0" style="stop-color:#FFE581"/>
			<stop  offset="1" style="stop-color:#D97011"/>
		</linearGradient>
		<ellipse class="st1" cx="12.5" cy="15" rx="11.4" ry="14.1"/>
		
			<radialGradient id="SVGID_2_" cx="-13.4869" cy="-144.3189" r="14.01" gradientTransform="matrix(-1 0 0 -1 -10 -124.35)" gradientUnits="userSpaceOnUse">
			<stop  offset="0.18" style="stop-color:#FFE990"/>
			<stop  offset="1" style="stop-color:#ECB33E"/>
		</radialGradient>
		<path class="st2" d="M12.2,27.5H13C7.4,27.5,3,22,3,15.2S7.4,3,13,3h-0.8c-5.5,0-10,5.5-10,12.3S6.7,27.5,12.2,27.5z"/>
		
			<linearGradient id="SVGID_3_" gradientUnits="userSpaceOnUse" x1="-28.8063" y1="-129.5485" x2="-4.2763" y2="-166.8385" gradientTransform="matrix(-1 0 0 -1 -10 -124.35)">
			<stop  offset="0" style="stop-color:#FFE990"/>
			<stop  offset="1" style="stop-color:#EAB141"/>
		</linearGradient>
		<path class="st3" d="M12.2,0.3C5.5,0.3,0,7,0,15.2s5.5,15,12.3,15s12.2-6.7,12.2-15S19,0.3,12.2,0.3z M22.2,15.3
			c0,6.8-4.5,12.2-10,12.2s-10-5.5-10-12.2S6.7,3,12.2,3S22.3,8.5,22.2,15.3L22.2,15.3z"/>
		
			<radialGradient id="SVGID_4_" cx="-33.5869" cy="-132.6089" r="7.39" gradientTransform="matrix(-1 0 0 -1 -10 -124.35)" gradientUnits="userSpaceOnUse">
			<stop  offset="0" style="stop-color:#FFF8CD"/>
			<stop  offset="0.34" style="stop-color:#FFF4BC"/>
			<stop  offset="1" style="stop-color:#FFE990"/>
		</radialGradient>
		<path class="st4" d="M14.6,0.5c5.6,1.4,9.9,7.4,9.9,14.6c0,1.8-0.3,3.5-0.8,5.2c0.1-1,0.2-1.9,0.2-2.9C23.9,9.9,20,3.3,14.6,0.5z"
			/>
		
			<radialGradient id="SVGID_5_" cx="11.4069" cy="11.1711" r="16.23" gradientTransform="matrix(1 0 0 -1 0 32)" gradientUnits="userSpaceOnUse">
			<stop  offset="0" style="stop-color:#FCDAC4"/>
			<stop  offset="0.17" style="stop-color:#D4A229"/>
			<stop  offset="0.87" style="stop-color:#C38210"/>
			<stop  offset="1" style="stop-color:#BC5617"/>
		</radialGradient>
		<path class="st5" d="M14.9,0.3h-2.7c6.8,0,12.2,6.7,12.2,15S19,30.2,12.2,30.2h2.7c6.8,0,12.2-6.7,12.2-15S21.7,0.3,14.9,0.3z"/>
		<path class="st6" d="M9.6,19.6c0.7,0.3,1.5,0.5,2.2,0.4h0.8c-0.8,0-1.5-0.1-2.2-0.4c0,0-0.1,0-0.1,0H9.5
			C9.5,19.6,9.5,19.6,9.6,19.6z"/>
		<rect x="13.2" y="22.7" class="st6" width="0.8" height="2.3"/>
		<rect x="13.3" y="5.5" class="st6" width="0.8" height="2.3"/>
		
			<linearGradient id="SVGID_6_" gradientUnits="userSpaceOnUse" x1="-27.2107" y1="730.5889" x2="-20.8669" y2="730.5889" gradientTransform="matrix(-1 0 0 1 -10 -713.98)">
			<stop  offset="0.1" style="stop-color:#D39802"/>
			<stop  offset="0.4" style="stop-color:#AA5617"/>
		</linearGradient>
		<path class="st7" d="M12.7,10.5h0.8c-1.1,0-1.9,0.5-1.9,1.5s0.6,1.5,2.1,2.1c2.1,0.9,3.5,2.1,3.5,4.4c0.1,2-1.3,3.8-3.3,4.3h-0.8
			c2-0.4,3.4-2.2,3.3-4.3c0-2.3-1.4-3.5-3.5-4.4c-1.4-0.6-2.1-1.2-2.1-2.1S11.6,10.5,12.7,10.5z"/>
		<path class="st8" d="M13.3,7.7H14c1.2,0,2.3,0.4,3.3,1h-0.8C15.6,8.1,14.4,7.8,13.3,7.7z"/>
		<path class="st9" d="M16.6,8.8h0.8c-0.1,0.1-1.1,2.4-1.1,2.5h-0.7C15.4,11.2,16.5,8.9,16.6,8.8z"/>
		<path class="st10" d="M11.2,25v-2.1c-1,0-2-0.3-2.8-0.8l1.1-2.4h0.1c0.7,0.3,1.4,0.5,2.2,0.5c1.3,0,1.7-0.7,1.7-1.3
			s-0.7-1.3-2.4-2c-2.3-1-3.3-2.3-3.3-4.5c-0.1-2.1,1.4-4,3.5-4.4V5.5h1.9v2.3c1.2,0,2.3,0.4,3.3,1c-0.1,0.1-1.1,2.4-1.1,2.5
			c-0.8-0.5-1.7-0.7-2.7-0.7c-1.1,0-1.9,0.5-1.9,1.5s0.6,1.5,2.1,2.1c2.1,0.9,3.5,2.1,3.5,4.4c0.1,2-1.3,3.8-3.3,4.3v2.3L11.2,25z"
			/>
		<polygon class="st11" points="22.9,5 22.6,9.8 19.7,10.1 22.6,10.5 22.9,15.2 23.3,10.5 26.1,10.1 23.3,9.8 		"/>
		<circle class="st12" cx="22.9" cy="10.1" r="1"/>
		
			<linearGradient id="SVGID_7_" gradientUnits="userSpaceOnUse" x1="-6.5266" y1="-137.0268" x2="-42.8767" y2="-132.8868" gradientTransform="matrix(-1 0 0 -1 -10 -124.35)">
			<stop  offset="0" style="stop-color:#FFE990"/>
			<stop  offset="1" style="stop-color:#EAB141"/>
		</linearGradient>
		<path class="st13" d="M4.7,3.7c0,9.2,7.7,16.7,17.3,16.7c1.5-0.1,3-0.2,4.4-0.5c0.4-1.6,0.6-3.2,0.7-4.9
			c0.1-8.8-6.4-15.4-13.3-14.9h-1.6C9.4,0.2,6.7,1.4,4.7,3.4C4.7,3.5,4.7,3.6,4.7,3.7z"/>
	</g>
</g>
<title>Artboard 1</title>
<path class="st14" d="M8.5,3.8c0,5.8,4.9,10.6,10.9,10.6c0.9,0,1.9-0.1,2.8-0.3c0.3-1,0.4-2.1,0.4-3.1c0.1-5.6-4-9.7-8.4-9.4h-1
	c-1.8,0-3.5,0.8-4.7,2C8.5,3.6,8.5,3.7,8.5,3.8z"/>
</svg>
